{
    "serviceAttributesDetails": {
        "date_of_service": "2021-07-30",
        "toc_code": "SR",
        "rid": "202107308791181",
        "locations": [
            {
                "location": "CUB",
                "gbtt_ptd": "1017",
                "gbtt_pta": "",
                "actual_td": "",
                "actual_ta": "",
                "late_canc_reason": "501"
            },
            {
                "location": "GRL",
                "gbtt_ptd": "1019",
                "gbtt_pta": "1019",
                "actual_td": "",
                "actual_ta": "",
                "late_canc_reason": "501"
            },
            {
                "location": "CBC",
                "gbtt_ptd": "1026",
                "gbtt_pta": "1026",
                "actual_td": "",
                "actual_ta": "",
                "late_canc_reason": "501"
            },
            {
                "location": "WFF",
                "gbtt_ptd": "1029",
                "gbtt_pta": "1029",
                "actual_td": "",
                "actual_ta": "",
                "late_canc_reason": "501"
            },
            {
                "location": "MTH",
                "gbtt_ptd": "1047",
                "gbtt_pta": "1037",
                "actual_td": "",
                "actual_ta": "",
                "late_canc_reason": "501"
            },
            {
                "location": "AIR",
                "gbtt_ptd": "1049",
                "gbtt_pta": "1049",
                "actual_td": "",
                "actual_ta": "",
                "late_canc_reason": "501"
            },
            {
                "location": "HNC",
                "gbtt_ptd": "1055",
                "gbtt_pta": "1055",
                "actual_td": "",
                "actual_ta": "",
                "late_canc_reason": "501"
            },
            {
                "location": "HNW",
                "gbtt_ptd": "1058",
                "gbtt_pta": "1058",
                "actual_td": "",
                "actual_ta": "",
                "late_canc_reason": "501"
            },
            {
                "location": "BLT",
                "gbtt_ptd": "1101",
                "gbtt_pta": "1101",
                "actual_td": "",
                "actual_ta": "",
                "late_canc_reason": "501"
            },
            {
                "location": "NTN",
                "gbtt_ptd": "1105",
                "gbtt_pta": "1105",
                "actual_td": "",
                "actual_ta": "",
                "late_canc_reason": "501"
            },
            {
                "location": "CBL",
                "gbtt_ptd": "1109",
                "gbtt_pta": "1109",
                "actual_td": "",
                "actual_ta": "",
                "late_canc_reason": "501"
            },
            {
                "location": "RUT",
                "gbtt_ptd": "1113",
                "gbtt_pta": "1112",
                "actual_td": "",
                "actual_ta": "",
                "late_canc_reason": "501"
            },
            {
                "location": "DAK",
                "gbtt_ptd": "1116",
                "gbtt_pta": "1116",
                "actual_td": "",
                "actual_ta": "",
                "late_canc_reason": "501"
            },
            {
                "location": "BDG",
                "gbtt_ptd": "1118",
                "gbtt_pta": "1118",
                "actual_td": "",
                "actual_ta": "",
                "late_canc_reason": "501"
            },
            {
                "location": "AGS",
                "gbtt_ptd": "1121",
                "gbtt_pta": "1121",
                "actual_td": "",
                "actual_ta": "",
                "late_canc_reason": "501"
            },
            {
                "location": "GLC",
                "gbtt_ptd": "1125",
                "gbtt_pta": "1123",
                "actual_td": "",
                "actual_ta": "",
                "late_canc_reason": "501"
            },
            {
                "location": "AND",
                "gbtt_ptd": "1127",
                "gbtt_pta": "1126",
                "actual_td": "",
                "actual_ta": "",
                "late_canc_reason": "501"
            },
            {
                "location": "EXG",
                "gbtt_ptd": "1129",
                "gbtt_pta": "1129",
                "actual_td": "",
                "actual_ta": "",
                "late_canc_reason": "501"
            },
            {
                "location": "PTK",
                "gbtt_ptd": "1132",
                "gbtt_pta": "1132",
                "actual_td": "",
                "actual_ta": "",
                "late_canc_reason": "501"
            },
            {
                "location": "HYN",
                "gbtt_ptd": "1135",
                "gbtt_pta": "1134",
                "actual_td": "",
                "actual_ta": "",
                "late_canc_reason": "501"
            },
            {
                "location": "ANL",
                "gbtt_ptd": "1138",
                "gbtt_pta": "1138",
                "actual_td": "",
                "actual_ta": "",
                "late_canc_reason": "501"
            },
            {
                "location": "WES",
                "gbtt_ptd": "1141",
                "gbtt_pta": "1141",
                "actual_td": "",
                "actual_ta": "",
                "late_canc_reason": "501"
            },
            {
                "location": "DMC",
                "gbtt_ptd": "1144",
                "gbtt_pta": "1144",
                "actual_td": "",
                "actual_ta": "",
                "late_canc_reason": "501"
            },
            {
                "location": "DMY",
                "gbtt_ptd": "1146",
                "gbtt_pta": "1146",
                "actual_td": "",
                "actual_ta": "",
                "late_canc_reason": "501"
            },
            {
                "location": "SIN",
                "gbtt_ptd": "1148",
                "gbtt_pta": "1148",
                "actual_td": "",
                "actual_ta": "",
                "late_canc_reason": "501"
            },
            {
                "location": "DMR",
                "gbtt_ptd": "",
                "gbtt_pta": "1151",
                "actual_td": "",
                "actual_ta": "",
                "late_canc_reason": "501"
            }
        ]
    }
}